<?xml version="1.0" standalone="no"?>
<!DOCTYPE svg PUBLIC "-//W3C//DTD SVG 1.1//EN" "http://www.w3.org/Graphics/SVG/1.1/DTD/svg11.dtd" >
<svg xmlns="http://www.w3.org/2000/svg">
<defs>
  <font id="hectre-icon" horiz-adv-x="4000">
    <font-face font-family="hectre-icon"
      units-per-em="1000" ascent="1000"
      descent="0" />
    <missing-glyph horiz-adv-x="0" />
    <glyph glyph-name="arrow-down"
      unicode="&#xEA01;"
      horiz-adv-x="1000" d="M916.2692307692308 525.3449230769231C901.153846153846 540.2684692307693 876.8461538461537 540.1919692307692 861.8846153846154 525.1133846153846L467.8492307692308 127.46L68.3106153846154 523.42C53.1947692307692 538.3807992307692 28.8866153846154 538.2670899999999 13.8865384615385 523.1884615384615C-1.0742153846154 508.0726153846153 -0.9605076923077 483.7273076923077 14.1180769230769 468.7644615384615L438.7715384615385 47.9569230769231C439.4246153846153 47.3030769230769 440.2707692307692 47.1484615384616 440.9261538461538 46.5338461538462C441.0792307692307 46.3815384615385 441.1184615384616 46.1892307692308 441.2715384615385 46.0338461538462C448.77 38.6115384615385 458.5784615384615 34.8792307692308 468.3476923076923 34.8792307692308C478.2330769230769 34.8792307692308 488.1546153846153 38.6876923076923 495.6561538461538 46.2630769230769L916.4615384615385 470.9167692307692C931.4615384615385 486.0366923076923 931.3538461538462 510.3820769230769 916.2692307692308 525.3449230769231z" />
    <glyph glyph-name="arrow-left"
      unicode="&#xEA02;"
      horiz-adv-x="666.6666666666666" d="M617.5 117.5000000000001L235.8333333333333 500L617.5 882.5L500 1000L0 500L500 0L617.5 117.5000000000001z" />
    <glyph glyph-name="arrow-right"
      unicode="&#xEA03;"
      horiz-adv-x="666.6666666666666" d="M49.1638333333333 117.5000000000001L430.8308333333333 500L49.1638333333333 882.5L166.6641666666667 1000L666.6641666666667 500L166.6641666666667 0L49.1638333333333 117.5000000000001z" />
    <glyph glyph-name="calendar"
      unicode="&#xEA04;"
      horiz-adv-x="900" d="M783.335 875.001H741.665V958.33435H658.335V875.001H241.666V958.33435H158.333V875.001H116.666C70.833 875.001 33.3328 837.501 33.3328 791.6675V125C33.3328 79.1700000000001 70.833 41.6700000000001 116.666 41.6700000000001H783.335C829.1650000000001 41.6700000000001 866.6650000000001 79.1700000000001 866.6650000000001 125V791.6675C866.6650000000001 837.501 829.1650000000001 875.001 783.335 875.001zM783.335 125H116.666V583.3344999999999H783.335V125zM783.335 666.6675H116.666V791.6675H783.335V666.6675z" />
    <glyph glyph-name="chemicals"
      unicode="&#xEA05;"
      horiz-adv-x="750" d="M174.41875 956.6183333333335H383.7208333333334C402.9866666666667 956.6183333333335 418.6041666666667 943.67 418.6041666666667 927.6970833333334V840.93375C418.6041666666667 824.9612500000001 402.9866666666667 812.0129166666667 383.7208333333334 812.0129166666667H174.41875C155.1529166666667 812.0129166666667 139.535 824.9612500000001 139.535 840.93375V927.6970833333334C139.535 943.67 155.1529166666667 956.6183333333335 174.41875 956.6183333333335zM366.2791666666667 696.3283333333334H383.7208333333334C390.9916666666667 696.3283333333334 398.0804166666666 694.445 403.9966666666666 690.9416666666667L543.5333333333333 618.6387500000001C552.6999999999999 613.21 558.1375 604.4445833333334 558.1375 595.1045833333334V31.1416666666667C558.1375 15.1708333333335 542.5208333333333 2.2208333333334 523.2541666666666 2.2208333333334H34.8837083333333C15.618 2.2208333333334 0 15.1708333333335 0 31.1416666666667V595.1045833333334C0 604.4445833333334 5.4406666666667 613.21 14.608 618.6387500000001L154.1429166666667 690.9416666666667C160.0591666666667 694.445 167.1479166666667 696.3283333333334 174.41875 696.3283333333334H191.8604166666667V768.63125H366.2791666666667V696.3283333333334zM715.1166666666667 942.1579166666666C695.8499999999999 942.1579166666666 680.2333333333333 955.10625 680.2333333333333 971.0789166666668C680.2333333333333 987.0515833333334 695.8499999999999 1000 715.1166666666667 1000C734.3833333333333 1000 750 987.0515833333334 750 971.0789166666668C750 955.10625 734.3833333333333 942.1579166666666 715.1166666666667 942.1579166666666zM715.1166666666667 840.93375C695.8499999999999 840.93375 680.2333333333333 853.8825 680.2333333333333 869.855C680.2333333333333 885.8279166666666 695.8499999999999 898.77625 715.1166666666667 898.77625C734.3833333333333 898.77625 750 885.8279166666666 750 869.855C750 853.8825 734.3833333333333 840.93375 715.1166666666667 840.93375zM715.1166666666667 739.71C695.8499999999999 739.71 680.2333333333333 752.6583333333333 680.2333333333333 768.63125C680.2333333333333 784.60375 695.8499999999999 797.5525 715.1166666666667 797.5525C734.3833333333333 797.5525 750 784.60375 750 768.63125C750 752.6583333333333 734.3833333333333 739.71 715.1166666666667 739.71zM610.4666666666666 797.5525C591.1999999999999 797.5525 575.5833333333333 810.5008333333334 575.5833333333333 826.4733333333334C575.5833333333333 842.44625 591.1999999999999 855.3945833333333 610.4666666666666 855.3945833333333C629.7291666666666 855.3945833333333 645.35 842.44625 645.35 826.4733333333334C645.35 810.5008333333334 629.7291666666666 797.5525 610.4666666666666 797.5525zM505.8124999999999 855.3945833333333C486.55 855.3945833333333 470.9291666666667 868.3429166666667 470.9291666666667 884.3154166666667C470.9291666666667 900.2883333333333 486.55 913.2366666666666 505.8124999999999 913.2366666666666C525.0791666666667 913.2366666666666 540.6958333333333 900.2883333333333 540.6958333333333 884.3154166666667C540.6958333333333 868.3429166666667 525.0791666666667 855.3945833333333 505.8124999999999 855.3945833333333zM610.4666666666666 898.77625C591.1999999999999 898.77625 575.5833333333333 911.7245833333334 575.5833333333333 927.6970833333334C575.5833333333333 943.67 591.1999999999999 956.6183333333335 610.4666666666666 956.6183333333335C629.7291666666666 956.6183333333335 645.35 943.67 645.35 927.6970833333334C645.35 911.7245833333334 629.7291666666666 898.77625 610.4666666666666 898.77625z" />
    <glyph glyph-name="filter"
      unicode="&#xEA06;"
      horiz-adv-x="1000" d="M575 0C567.5 0 560 3.75 552.5 7.4999999999999L402.4995 120C391.2495 127.5 387.4995 138.75 387.4995 150V510L61.2495 836.25C49.99935 847.5 46.24935 862.5 53.7495 877.5C57.4995 892.5 72.4995 900 87.4995 900H912.5C927.5 900 942.5000000000002 892.5 946.25 877.5C953.75 862.5 950 847.5 938.7499999999998 836.25L612.5 510V37.5C612.5 22.5 605 11.2500000000001 590 3.75C586.25 0 582.5 0 575 0zM462.4995 168.75L537.5 112.5V525C537.5 536.25 541.25 543.75 548.75 551.25L822.5 825H177.4995L451.2495 551.25C458.7495 543.75 462.4995 536.25 462.4995 525V168.75z" />
    <glyph glyph-name="menu"
      unicode="&#xEA07;"
      horiz-adv-x="960" d="M540 720.266H90C72 720.266 60 732.2660000000001 60 750.266C60 768.266 72 780.266 90 780.266H540C558 780.266 570 768.266 570 750.266C570 732.2660000000001 558 720.266 540 720.266zM540 450.2680000000001H90C72 450.2680000000001 60 462.268 60 480.268C60 498.268 72 510.268 90 510.268H540C558 510.268 570 498.268 570 480.268C570 462.268 558 450.2680000000001 540 450.2680000000001zM870 180.2679999999999H90C72 180.2679999999999 60 192.268 60 210.2679999999999C60 228.2680000000001 72 240.2679999999999 90 240.2679999999999H870C888 240.2679999999999 900 228.2680000000001 900 210.2679999999999C900 192.268 888 180.2679999999999 870 180.2679999999999zM720 450.264C711 450.264 705 453.264 699 459.264C687 471.264 690 489.264 702 501.264L828 615.2660000000001L702 729.2660000000001C690 741.2660000000001 690 759.2660000000001 699 771.266C711 783.266 729 783.266 741 774.2660000000001L891 639.2660000000001C897 633.266 900 624.2660000000001 900 618.266C900 612.266 897 600.2660000000001 891 597.264L741 462.264C735 453.264 726 450.264 720 450.264z" />
    <glyph glyph-name="report"
      unicode="&#xEA08;"
      horiz-adv-x="1000" d="M633.6818181818182 447.9136363636365V764.0486363636364C633.6818181818182 788.2054545454546 613.6818181818181 808.1609090909091 589.4727272727273 808.1609090909091H410.5240909090909C386.3136363636364 808.1609090909091 366.3136363636363 788.2054545454546 366.3136363636363 764.0486363636364V447.9136363636365C404.2081818181819 475.2181818181818 450.5240909090909 489.9227272727273 500 489.9227272727273C549.4727272727273 490.9727272727272 595.7863636363636 475.2181818181818 633.6818181818182 447.9136363636365zM222.1054545454546 631.7140909090909H44.2105454545455C20 631.7140909090909 0 611.7581818181818 0 587.6013636363637V314.5227272727273C0 290.3681818181818 20 270.409090909091 44.2105454545455 270.409090909091H222.1054545454546C246.3159090909091 270.409090909091 266.3159090909091 290.3681818181818 266.3159090909091 314.5227272727273V587.6013636363637C266.3159090909091 611.7581818181818 246.3159090909091 631.7140909090909 222.1054545454546 631.7140909090909zM955.790909090909 985.6595H777.8954545454546C753.6863636363636 985.6595 733.6863636363637 965.703909090909 733.6863636363637 941.5472727272726V314.5227272727273C733.6863636363637 290.3636363636364 753.6863636363636 270.409090909091 777.8954545454546 270.409090909091H955.790909090909C980.0045454545455 270.409090909091 1000.0045454545455 290.3636363636364 1000.0045454545455 314.5227272727273V941.5472727272726C1000.0045454545455 965.703909090909 980.0045454545455 985.6595 955.790909090909 985.6595zM642.1045454545455 181.1363636363636C655.7863636363636 205.2909090909092 664.209090909091 231.5500000000001 664.209090909091 260.9545454545455C664.209090909091 351.2818181818182 590.5227272727273 424.8 500 424.8C409.4718181818182 424.8 335.7877272727273 351.2818181818182 335.7877272727273 260.9545454545455C335.7877272727273 170.6318181818183 409.4718181818182 97.1090909090908 500 97.1090909090908C529.4727272727273 97.1090909090908 555.7863636363636 105.5136363636365 580 118.118181818182L649.4727272727272 48.7954545454545C657.8909090909091 40.3954545454545 669.4727272727273 36.1954545454545 681.05 36.1954545454545C692.6318181818182 36.1954545454545 704.2090909090908 40.3954545454545 712.6318181818182 48.7954545454545C729.4727272727273 65.6 729.4727272727273 93.959090909091 712.6318181818182 111.8136363636364L642.1045454545455 181.1363636363636zM422.1036363636364 260.9545454545455C422.1036363636364 304.0181818181818 456.8409090909091 338.6772727272728 500 338.6772727272728C543.1545454545454 338.6772727272728 577.8909090909091 304.0181818181818 577.8909090909091 260.9545454545455C577.8909090909091 217.8954545454547 543.1545454545454 183.2363636363635 500 183.2363636363635C456.8409090909091 183.2363636363635 422.1036363636364 217.8954545454547 422.1036363636364 260.9545454545455z" />
    <glyph glyph-name="threedots"
      unicode="&#xEA09;"
      horiz-adv-x="1000" d="M125 250C56.25 250 0 193.75 0 125C0 56.25 56.25 0 125 0C193.75 0 250 56.25 250 125C250 193.75 193.75 250 125 250zM875 250C806.25 250 750 193.75 750 125C750 56.25 806.25 0 875 0C943.75 0 1000 56.25 1000 125C1000 193.75 943.75 250 875 250zM500 250C431.25 250 375 193.75 375 125C375 56.25 431.25 0 500 0C568.75 0 625 56.25 625 125C625 193.75 568.75 250 500 250z" />
  </font>
</defs>
</svg>
